%YAML 1.1
%TAG !u! tag:unity3d.com,2011:
--- !u!78 &1
TagManager:
  serializedVersion: 2
  tags:
  - 1
  - 2
  - 3
  - 4
  - 5
  - 6
  - C1
  - C3
  - C2
  - C4
  - C6
  - C5
  - NO
  - YES
  - STORE_ITEM_LEFT
  - STORE_ITEM_RIGHT
  - STORE_ITEM_ICON
  - STORE_LOADING
  - title
  - subtitle
  - NEWS_LOADING
  - STORE_ITEM_BUTTON
  layers:
  - Default
  - TransparentFX
  - Ignore Raycast
  - 
  - Water
  - UI
  - 
  - 
  - AudioHandler
  - 
  - 
  - 
  - 
  - 
  - 
  - 
  - 
  - 
  - 
  - 
  - 
  - 
  - 
  - 
  - 
  - 
  - 
  - 
  - 
  - 
  - 
  - 
  m_SortingLayers:
  - name: Default
    uniqueID: 0
    locked: 0
  - name: Particle
    uniqueID: 2495338973
    locked: 0
