%YAML 1.1
%TAG !u! tag:unity3d.com,2011:
--- !u!74 &7400000
AnimationClip:
  m_ObjectHideFlags: 0
  m_PrefabParentObject: {fileID: 0}
  m_PrefabInternal: {fileID: 0}
  m_Name: gear_rotate_up
  serializedVersion: 6
  m_Legacy: 0
  m_Compressed: 0
  m_UseHighQualityCurve: 1
  m_RotationCurves:
  - curve:
      serializedVersion: 2
      m_Curve:
      - time: 0
        value: {x: -0, y: -0, z: -0.026176952, w: -0.99965733}
        inSlope: {x: 0, y: 0, z: -6.2090397, w: 0.48593757}
        outSlope: {x: 0, y: 0, z: -6.2090397, w: 0.48593757}
        tangentMode: 0
      - time: 0.016666668
        value: {x: -0, y: -0, z: -0.12966095, w: -0.9915584}
        inSlope: {x: 0, y: 0, z: -6.1671295, w: 0.8064437}
        outSlope: {x: 0, y: 0, z: -6.1671295, w: 0.8064437}
        tangentMode: 0
      - time: 0.033333335
        value: {x: -0, y: -0, z: -0.23174794, w: -0.9727759}
        inSlope: {x: 0, y: 0, z: -6.0503097, w: 1.4413868}
        outSlope: {x: 0, y: 0, z: -6.0503097, w: 1.4413868}
        tangentMode: 0
      - time: 0.050000004
        value: {x: -0, y: -0, z: -0.33133796, w: -0.94351214}
        inSlope: {x: 0, y: 0, z: -5.8682995, w: 2.0608}
        outSlope: {x: 0, y: 0, z: -5.8682995, w: 2.0608}
        tangentMode: 0
      - time: 0.06666667
        value: {x: -0, y: -0, z: -0.42735794, w: -0.90408254}
        inSlope: {x: 0, y: 0, z: -5.623061, w: 2.6580086}
        outSlope: {x: 0, y: 0, z: -5.623061, w: 2.6580086}
        tangentMode: 0
      - time: 0.083333336
        value: {x: -0, y: -0, z: -0.5187733, w: -0.85491186}
        inSlope: {x: 0, y: 0, z: -5.3172374, w: 3.2265797}
        outSlope: {x: 0, y: 0, z: -5.3172374, w: 3.2265797}
        tangentMode: 0
      - time: 0.1
        value: {x: -0, y: -0, z: -0.6045992, w: -0.7965299}
        inSlope: {x: 0, y: 0, z: -4.9541245, w: 3.7603877}
        outSlope: {x: 0, y: 0, z: -4.9541245, w: 3.7603877}
        tangentMode: 0
      - time: 0.11666667
        value: {x: -0, y: -0, z: -0.6839108, w: -0.7295656}
        inSlope: {x: 0, y: 0, z: -4.53763, w: 4.2536736}
        outSlope: {x: 0, y: 0, z: -4.53763, w: 4.2536736}
        tangentMode: 0
      - time: 0.13333334
        value: {x: -0, y: -0, z: -0.75585353, w: -0.65474075}
        inSlope: {x: 0, y: 0, z: -4.072247, w: 4.7011304}
        outSlope: {x: 0, y: 0, z: -4.072247, w: 4.7011304}
        tangentMode: 0
      - time: 0.15
        value: {x: -0, y: -0, z: -0.8196524, w: -0.57286125}
        inSlope: {x: 0, y: 0, z: -3.562986, w: 5.0979357}
        outSlope: {x: 0, y: 0, z: -3.562986, w: 5.0979357}
        tangentMode: 0
      - time: 0.16666667
        value: {x: -0, y: -0, z: -0.8746197, w: -0.48480958}
        inSlope: {x: 0, y: 0, z: -3.015338, w: 5.4398165}
        outSlope: {x: 0, y: 0, z: -3.015338, w: 5.4398165}
        tangentMode: 0
      - time: 0.18333334
        value: {x: -0, y: -0, z: -0.92016363, w: -0.39153406}
        inSlope: {x: 0, y: 0, z: -2.4352012, w: 5.7230825}
        outSlope: {x: 0, y: 0, z: -2.4352012, w: 5.7230825}
        tangentMode: 0
      - time: 0.2
        value: {x: -0, y: -0, z: -0.9557931, w: -0.29404017}
        inSlope: {x: 0, y: 0, z: -1.8288198, w: 5.9446783}
        outSlope: {x: 0, y: 0, z: -1.8288198, w: 5.9446783}
        tangentMode: 0
      - time: 0.21666667
        value: {x: -0, y: -0, z: -0.9811243, w: -0.19337814}
        inSlope: {x: 0, y: 0, z: -1.2027402, w: 6.1022325}
        outSlope: {x: 0, y: 0, z: -1.2027402, w: 6.1022325}
        tangentMode: 0
      - time: 0.23333333
        value: {x: -0, y: -0, z: -0.9958844, w: -0.09063243}
        inSlope: {x: 0, y: 0, z: -0.56370205, w: 6.1940384}
        outSlope: {x: 0, y: 0, z: -0.56370205, w: 6.1940384}
        tangentMode: 0
      - time: 0.25
        value: {x: -0, y: -0, z: -0.99991435, w: 0.013089804}
        inSlope: {x: 0, y: 0, z: 0.08141381, w: 6.2191005}
        outSlope: {x: 0, y: 0, z: 0.08141381, w: 6.2191005}
        tangentMode: 0
      - time: 0.26666668
        value: {x: -0, y: -0, z: -0.9931706, w: 0.116670996}
        inSlope: {x: 0, y: 0, z: 0.7256514, w: 6.1771545}
        outSlope: {x: 0, y: 0, z: 0.7256514, w: 6.1771545}
        tangentMode: 0
      - time: 0.28333336
        value: {x: -0, y: -0, z: -0.97572595, w: 0.21899512}
        inSlope: {x: 0, y: 0, z: 1.3620694, w: 6.0686545}
        outSlope: {x: 0, y: 0, z: 1.3620694, w: 6.0686545}
        tangentMode: 0
      - time: 0.30000004
        value: {x: -0, y: -0, z: -0.9477683, w: 0.31895965}
        inSlope: {x: 0, y: 0, z: 1.983812, w: 5.8947716}
        outSlope: {x: 0, y: 0, z: 1.983812, w: 5.8947716}
        tangentMode: 0
      - time: 0.31666672
        value: {x: -0, y: -0, z: -0.9095988, w: 0.41548768}
        inSlope: {x: 0, y: 0, z: 2.5841827, w: 5.657375}
        outSlope: {x: 0, y: 0, z: 2.5841827, w: 5.657375}
        tangentMode: 0
      - time: 0.3333334
        value: {x: -0, y: -0, z: -0.8616288, w: 0.507539}
        inSlope: {x: 0, y: 0, z: 3.1567054, w: 5.3590126}
        outSlope: {x: 0, y: 0, z: 3.1567054, w: 5.3590126}
        tangentMode: 0
      - time: 0.35000008
        value: {x: -0, y: -0, z: -0.80437523, w: 0.5941216}
        inSlope: {x: 0, y: 0, z: 3.6952171, w: 5.0029163}
        outSlope: {x: 0, y: 0, z: 3.6952171, w: 5.0029163}
        tangentMode: 0
      - time: 0.36666676
        value: {x: -0, y: -0, z: -0.73845476, w: 0.674303}
        inSlope: {x: 0, y: 0, z: 4.1939144, w: 4.592916}
        outSlope: {x: 0, y: 0, z: 4.1939144, w: 4.592916}
        tangentMode: 0
      - time: 0.38333344
        value: {x: -0, y: -0, z: -0.66457796, w: 0.7472189}
        inSlope: {x: 0, y: 0, z: 4.6474314, w: 4.1334324}
        outSlope: {x: 0, y: 0, z: 4.6474314, w: 4.1334324}
        tangentMode: 0
      - time: 0.40000013
        value: {x: -0, y: -0, z: -0.58354026, w: 0.8120842}
        inSlope: {x: 0, y: 0, z: 5.050869, w: 3.6294103}
        outSlope: {x: 0, y: 0, z: 5.050869, w: 3.6294103}
        tangentMode: 0
      - time: 0.4166668
        value: {x: -0, y: -0, z: -0.49621552, w: 0.86819935}
        inSlope: {x: 0, y: 0, z: 5.3998804, w: 3.0862775}
        outSlope: {x: 0, y: 0, z: 5.3998804, w: 3.0862775}
        tangentMode: 0
      - time: 0.4333335
        value: {x: -0, y: -0, z: -0.4035441, w: 0.9149602}
        inSlope: {x: 0, y: 0, z: 5.690714, w: 2.5098963}
        outSlope: {x: 0, y: 0, z: 5.690714, w: 2.5098963}
        tangentMode: 0
      - time: 0.45000017
        value: {x: -0, y: -0, z: -0.3065249, w: 0.95186263}
        inSlope: {x: 0, y: 0, z: 5.9202337, w: 1.9064696}
        outSlope: {x: 0, y: 0, z: 5.9202337, w: 1.9064696}
        tangentMode: 0
      - time: 0.46666685
        value: {x: -0, y: -0, z: -0.2062028, w: 0.97850925}
        inSlope: {x: 0, y: 0, z: 6.085966, w: 1.2825061}
        outSlope: {x: 0, y: 0, z: 6.085966, w: 1.2825061}
        tangentMode: 0
      - time: 0.48333353
        value: {x: -0, y: -0, z: -0.103659205, w: 0.9946129}
        inSlope: {x: 0, y: 0, z: 6.1861277, w: 0.6447241}
        outSlope: {x: 0, y: 0, z: 6.1861277, w: 0.6447241}
        tangentMode: 0
      - time: 0.5
        value: {x: -0, y: -0, z: 0.00000032584137, w: 1}
        inSlope: {x: 0, y: 0, z: 6.2196445, w: 0.32323143}
        outSlope: {x: 0, y: 0, z: 6.2196445, w: 0.32323143}
        tangentMode: 0
      m_PreInfinity: 2
      m_PostInfinity: 2
      m_RotationOrder: 4
    path: 
  m_CompressedRotationCurves: []
  m_EulerCurves: []
  m_PositionCurves: []
  m_ScaleCurves: []
  m_FloatCurves: []
  m_PPtrCurves: []
  m_SampleRate: 60
  m_WrapMode: 0
  m_Bounds:
    m_Center: {x: 0, y: 0, z: 0}
    m_Extent: {x: 0, y: 0, z: 0}
  m_ClipBindingConstant:
    genericBindings:
    - path: 0
      attribute: 2
      script: {fileID: 0}
      classID: 4
      customType: 0
      isPPtrCurve: 0
    pptrCurveMapping: []
  m_AnimationClipSettings:
    serializedVersion: 2
    m_AdditiveReferencePoseClip: {fileID: 0}
    m_AdditiveReferencePoseTime: 0
    m_StartTime: 0
    m_StopTime: 0.5
    m_OrientationOffsetY: 0
    m_Level: 0
    m_CycleOffset: 0
    m_HasAdditiveReferencePose: 0
    m_LoopTime: 0
    m_LoopBlend: 0
    m_LoopBlendOrientation: 0
    m_LoopBlendPositionY: 0
    m_LoopBlendPositionXZ: 0
    m_KeepOriginalOrientation: 0
    m_KeepOriginalPositionY: 1
    m_KeepOriginalPositionXZ: 0
    m_HeightFromFeet: 0
    m_Mirror: 0
  m_EditorCurves:
  - curve:
      serializedVersion: 2
      m_Curve:
      - time: 0
        value: -0
        inSlope: 0
        outSlope: 0
        tangentMode: 0
      - time: 0.016666668
        value: -0
        inSlope: 0
        outSlope: 0
        tangentMode: 0
      - time: 0.033333335
        value: -0
        inSlope: 0
        outSlope: 0
        tangentMode: 0
      - time: 0.050000004
        value: -0
        inSlope: 0
        outSlope: 0
        tangentMode: 0
      - time: 0.06666667
        value: -0
        inSlope: 0
        outSlope: 0
        tangentMode: 0
      - time: 0.083333336
        value: -0
        inSlope: 0
        outSlope: 0
        tangentMode: 0
      - time: 0.1
        value: -0
        inSlope: 0
        outSlope: 0
        tangentMode: 0
      - time: 0.11666667
        value: -0
        inSlope: 0
        outSlope: 0
        tangentMode: 0
      - time: 0.13333334
        value: -0
        inSlope: 0
        outSlope: 0
        tangentMode: 0
      - time: 0.15
        value: -0
        inSlope: 0
        outSlope: 0
        tangentMode: 0
      - time: 0.16666667
        value: -0
        inSlope: 0
        outSlope: 0
        tangentMode: 0
      - time: 0.18333334
        value: -0
        inSlope: 0
        outSlope: 0
        tangentMode: 0
      - time: 0.2
        value: -0
        inSlope: 0
        outSlope: 0
        tangentMode: 0
      - time: 0.21666667
        value: -0
        inSlope: 0
        outSlope: 0
        tangentMode: 0
      - time: 0.23333333
        value: -0
        inSlope: 0
        outSlope: 0
        tangentMode: 0
      - time: 0.25
        value: -0
        inSlope: 0
        outSlope: 0
        tangentMode: 0
      - time: 0.26666668
        value: -0
        inSlope: 0
        outSlope: 0
        tangentMode: 0
      - time: 0.28333336
        value: -0
        inSlope: 0
        outSlope: 0
        tangentMode: 0
      - time: 0.30000004
        value: -0
        inSlope: 0
        outSlope: 0
        tangentMode: 0
      - time: 0.31666672
        value: -0
        inSlope: 0
        outSlope: 0
        tangentMode: 0
      - time: 0.3333334
        value: -0
        inSlope: 0
        outSlope: 0
        tangentMode: 0
      - time: 0.35000008
        value: -0
        inSlope: 0
        outSlope: 0
        tangentMode: 0
      - time: 0.36666676
        value: -0
        inSlope: 0
        outSlope: 0
        tangentMode: 0
      - time: 0.38333344
        value: -0
        inSlope: 0
        outSlope: 0
        tangentMode: 0
      - time: 0.40000013
        value: -0
        inSlope: 0
        outSlope: 0
        tangentMode: 0
      - time: 0.4166668
        value: -0
        inSlope: 0
        outSlope: 0
        tangentMode: 0
      - time: 0.4333335
        value: -0
        inSlope: 0
        outSlope: 0
        tangentMode: 0
      - time: 0.45000017
        value: -0
        inSlope: 0
        outSlope: 0
        tangentMode: 0
      - time: 0.46666685
        value: -0
        inSlope: 0
        outSlope: 0
        tangentMode: 0
      - time: 0.48333353
        value: -0
        inSlope: 0
        outSlope: 0
        tangentMode: 0
      - time: 0.5
        value: -0
        inSlope: 0
        outSlope: 0
        tangentMode: 0
      m_PreInfinity: 2
      m_PostInfinity: 2
      m_RotationOrder: 4
    attribute: m_LocalRotation.x
    path: 
    classID: 224
    script: {fileID: 0}
  - curve:
      serializedVersion: 2
      m_Curve:
      - time: 0
        value: -0
        inSlope: 0
        outSlope: 0
        tangentMode: 0
      - time: 0.016666668
        value: -0
        inSlope: 0
        outSlope: 0
        tangentMode: 0
      - time: 0.033333335
        value: -0
        inSlope: 0
        outSlope: 0
        tangentMode: 0
      - time: 0.050000004
        value: -0
        inSlope: 0
        outSlope: 0
        tangentMode: 0
      - time: 0.06666667
        value: -0
        inSlope: 0
        outSlope: 0
        tangentMode: 0
      - time: 0.083333336
        value: -0
        inSlope: 0
        outSlope: 0
        tangentMode: 0
      - time: 0.1
        value: -0
        inSlope: 0
        outSlope: 0
        tangentMode: 0
      - time: 0.11666667
        value: -0
        inSlope: 0
        outSlope: 0
        tangentMode: 0
      - time: 0.13333334
        value: -0
        inSlope: 0
        outSlope: 0
        tangentMode: 0
      - time: 0.15
        value: -0
        inSlope: 0
        outSlope: 0
        tangentMode: 0
      - time: 0.16666667
        value: -0
        inSlope: 0
        outSlope: 0
        tangentMode: 0
      - time: 0.18333334
        value: -0
        inSlope: 0
        outSlope: 0
        tangentMode: 0
      - time: 0.2
        value: -0
        inSlope: 0
        outSlope: 0
        tangentMode: 0
      - time: 0.21666667
        value: -0
        inSlope: 0
        outSlope: 0
        tangentMode: 0
      - time: 0.23333333
        value: -0
        inSlope: 0
        outSlope: 0
        tangentMode: 0
      - time: 0.25
        value: -0
        inSlope: 0
        outSlope: 0
        tangentMode: 0
      - time: 0.26666668
        value: -0
        inSlope: 0
        outSlope: 0
        tangentMode: 0
      - time: 0.28333336
        value: -0
        inSlope: 0
        outSlope: 0
        tangentMode: 0
      - time: 0.30000004
        value: -0
        inSlope: 0
        outSlope: 0
        tangentMode: 0
      - time: 0.31666672
        value: -0
        inSlope: 0
        outSlope: 0
        tangentMode: 0
      - time: 0.3333334
        value: -0
        inSlope: 0
        outSlope: 0
        tangentMode: 0
      - time: 0.35000008
        value: -0
        inSlope: 0
        outSlope: 0
        tangentMode: 0
      - time: 0.36666676
        value: -0
        inSlope: 0
        outSlope: 0
        tangentMode: 0
      - time: 0.38333344
        value: -0
        inSlope: 0
        outSlope: 0
        tangentMode: 0
      - time: 0.40000013
        value: -0
        inSlope: 0
        outSlope: 0
        tangentMode: 0
      - time: 0.4166668
        value: -0
        inSlope: 0
        outSlope: 0
        tangentMode: 0
      - time: 0.4333335
        value: -0
        inSlope: 0
        outSlope: 0
        tangentMode: 0
      - time: 0.45000017
        value: -0
        inSlope: 0
        outSlope: 0
        tangentMode: 0
      - time: 0.46666685
        value: -0
        inSlope: 0
        outSlope: 0
        tangentMode: 0
      - time: 0.48333353
        value: -0
        inSlope: 0
        outSlope: 0
        tangentMode: 0
      - time: 0.5
        value: -0
        inSlope: 0
        outSlope: 0
        tangentMode: 0
      m_PreInfinity: 2
      m_PostInfinity: 2
      m_RotationOrder: 4
    attribute: m_LocalRotation.y
    path: 
    classID: 224
    script: {fileID: 0}
  - curve:
      serializedVersion: 2
      m_Curve:
      - time: 0
        value: -0.026176952
        inSlope: -6.2090397
        outSlope: -6.2090397
        tangentMode: 0
      - time: 0.016666668
        value: -0.12966095
        inSlope: -6.1671295
        outSlope: -6.1671295
        tangentMode: 0
      - time: 0.033333335
        value: -0.23174794
        inSlope: -6.0503097
        outSlope: -6.0503097
        tangentMode: 0
      - time: 0.050000004
        value: -0.33133796
        inSlope: -5.8682995
        outSlope: -5.8682995
        tangentMode: 0
      - time: 0.06666667
        value: -0.42735794
        inSlope: -5.623061
        outSlope: -5.623061
        tangentMode: 0
      - time: 0.083333336
        value: -0.5187733
        inSlope: -5.3172374
        outSlope: -5.3172374
        tangentMode: 0
      - time: 0.1
        value: -0.6045992
        inSlope: -4.9541245
        outSlope: -4.9541245
        tangentMode: 0
      - time: 0.11666667
        value: -0.6839108
        inSlope: -4.53763
        outSlope: -4.53763
        tangentMode: 0
      - time: 0.13333334
        value: -0.75585353
        inSlope: -4.072247
        outSlope: -4.072247
        tangentMode: 0
      - time: 0.15
        value: -0.8196524
        inSlope: -3.562986
        outSlope: -3.562986
        tangentMode: 0
      - time: 0.16666667
        value: -0.8746197
        inSlope: -3.015338
        outSlope: -3.015338
        tangentMode: 0
      - time: 0.18333334
        value: -0.92016363
        inSlope: -2.4352012
        outSlope: -2.4352012
        tangentMode: 0
      - time: 0.2
        value: -0.9557931
        inSlope: -1.8288198
        outSlope: -1.8288198
        tangentMode: 0
      - time: 0.21666667
        value: -0.9811243
        inSlope: -1.2027402
        outSlope: -1.2027402
        tangentMode: 0
      - time: 0.23333333
        value: -0.9958844
        inSlope: -0.56370205
        outSlope: -0.56370205
        tangentMode: 0
      - time: 0.25
        value: -0.99991435
        inSlope: 0.08141381
        outSlope: 0.08141381
        tangentMode: 0
      - time: 0.26666668
        value: -0.9931706
        inSlope: 0.7256514
        outSlope: 0.7256514
        tangentMode: 0
      - time: 0.28333336
        value: -0.97572595
        inSlope: 1.3620694
        outSlope: 1.3620694
        tangentMode: 0
      - time: 0.30000004
        value: -0.9477683
        inSlope: 1.983812
        outSlope: 1.983812
        tangentMode: 0
      - time: 0.31666672
        value: -0.9095988
        inSlope: 2.5841827
        outSlope: 2.5841827
        tangentMode: 0
      - time: 0.3333334
        value: -0.8616288
        inSlope: 3.1567054
        outSlope: 3.1567054
        tangentMode: 0
      - time: 0.35000008
        value: -0.80437523
        inSlope: 3.6952171
        outSlope: 3.6952171
        tangentMode: 0
      - time: 0.36666676
        value: -0.73845476
        inSlope: 4.1939144
        outSlope: 4.1939144
        tangentMode: 0
      - time: 0.38333344
        value: -0.66457796
        inSlope: 4.6474314
        outSlope: 4.6474314
        tangentMode: 0
      - time: 0.40000013
        value: -0.58354026
        inSlope: 5.050869
        outSlope: 5.050869
        tangentMode: 0
      - time: 0.4166668
        value: -0.49621552
        inSlope: 5.3998804
        outSlope: 5.3998804
        tangentMode: 0
      - time: 0.4333335
        value: -0.4035441
        inSlope: 5.690714
        outSlope: 5.690714
        tangentMode: 0
      - time: 0.45000017
        value: -0.3065249
        inSlope: 5.9202337
        outSlope: 5.9202337
        tangentMode: 0
      - time: 0.46666685
        value: -0.2062028
        inSlope: 6.085966
        outSlope: 6.085966
        tangentMode: 0
      - time: 0.48333353
        value: -0.103659205
        inSlope: 6.1861277
        outSlope: 6.1861277
        tangentMode: 0
      - time: 0.5
        value: 0.00000032584137
        inSlope: 6.2196445
        outSlope: 6.2196445
        tangentMode: 0
      m_PreInfinity: 2
      m_PostInfinity: 2
      m_RotationOrder: 4
    attribute: m_LocalRotation.z
    path: 
    classID: 224
    script: {fileID: 0}
  - curve:
      serializedVersion: 2
      m_Curve:
      - time: 0
        value: -0.99965733
        inSlope: 0.48593757
        outSlope: 0.48593757
        tangentMode: 0
      - time: 0.016666668
        value: -0.9915584
        inSlope: 0.8064437
        outSlope: 0.8064437
        tangentMode: 0
      - time: 0.033333335
        value: -0.9727759
        inSlope: 1.4413868
        outSlope: 1.4413868
        tangentMode: 0
      - time: 0.050000004
        value: -0.94351214
        inSlope: 2.0608
        outSlope: 2.0608
        tangentMode: 0
      - time: 0.06666667
        value: -0.90408254
        inSlope: 2.6580086
        outSlope: 2.6580086
        tangentMode: 0
      - time: 0.083333336
        value: -0.85491186
        inSlope: 3.2265797
        outSlope: 3.2265797
        tangentMode: 0
      - time: 0.1
        value: -0.7965299
        inSlope: 3.7603877
        outSlope: 3.7603877
        tangentMode: 0
      - time: 0.11666667
        value: -0.7295656
        inSlope: 4.2536736
        outSlope: 4.2536736
        tangentMode: 0
      - time: 0.13333334
        value: -0.65474075
        inSlope: 4.7011304
        outSlope: 4.7011304
        tangentMode: 0
      - time: 0.15
        value: -0.57286125
        inSlope: 5.0979357
        outSlope: 5.0979357
        tangentMode: 0
      - time: 0.16666667
        value: -0.48480958
        inSlope: 5.4398165
        outSlope: 5.4398165
        tangentMode: 0
      - time: 0.18333334
        value: -0.39153406
        inSlope: 5.7230825
        outSlope: 5.7230825
        tangentMode: 0
      - time: 0.2
        value: -0.29404017
        inSlope: 5.9446783
        outSlope: 5.9446783
        tangentMode: 0
      - time: 0.21666667
        value: -0.19337814
        inSlope: 6.1022325
        outSlope: 6.1022325
        tangentMode: 0
      - time: 0.23333333
        value: -0.09063243
        inSlope: 6.1940384
        outSlope: 6.1940384
        tangentMode: 0
      - time: 0.25
        value: 0.013089804
        inSlope: 6.2191005
        outSlope: 6.2191005
        tangentMode: 0
      - time: 0.26666668
        value: 0.116670996
        inSlope: 6.1771545
        outSlope: 6.1771545
        tangentMode: 0
      - time: 0.28333336
        value: 0.21899512
        inSlope: 6.0686545
        outSlope: 6.0686545
        tangentMode: 0
      - time: 0.30000004
        value: 0.31895965
        inSlope: 5.8947716
        outSlope: 5.8947716
        tangentMode: 0
      - time: 0.31666672
        value: 0.41548768
        inSlope: 5.657375
        outSlope: 5.657375
        tangentMode: 0
      - time: 0.3333334
        value: 0.507539
        inSlope: 5.3590126
        outSlope: 5.3590126
        tangentMode: 0
      - time: 0.35000008
        value: 0.5941216
        inSlope: 5.0029163
        outSlope: 5.0029163
        tangentMode: 0
      - time: 0.36666676
        value: 0.674303
        inSlope: 4.592916
        outSlope: 4.592916
        tangentMode: 0
      - time: 0.38333344
        value: 0.7472189
        inSlope: 4.1334324
        outSlope: 4.1334324
        tangentMode: 0
      - time: 0.40000013
        value: 0.8120842
        inSlope: 3.6294103
        outSlope: 3.6294103
        tangentMode: 0
      - time: 0.4166668
        value: 0.86819935
        inSlope: 3.0862775
        outSlope: 3.0862775
        tangentMode: 0
      - time: 0.4333335
        value: 0.9149602
        inSlope: 2.5098963
        outSlope: 2.5098963
        tangentMode: 0
      - time: 0.45000017
        value: 0.95186263
        inSlope: 1.9064696
        outSlope: 1.9064696
        tangentMode: 0
      - time: 0.46666685
        value: 0.97850925
        inSlope: 1.2825061
        outSlope: 1.2825061
        tangentMode: 0
      - time: 0.48333353
        value: 0.9946129
        inSlope: 0.6447241
        outSlope: 0.6447241
        tangentMode: 0
      - time: 0.5
        value: 1
        inSlope: 0.32323143
        outSlope: 0.32323143
        tangentMode: 0
      m_PreInfinity: 2
      m_PostInfinity: 2
      m_RotationOrder: 4
    attribute: m_LocalRotation.w
    path: 
    classID: 224
    script: {fileID: 0}
  m_EulerEditorCurves:
  - curve:
      serializedVersion: 2
      m_Curve:
      - time: 0
        value: 0
        inSlope: 0
        outSlope: 0
        tangentMode: 10
      - time: 0.5
        value: 0
        inSlope: 0
        outSlope: 0
        tangentMode: 10
      m_PreInfinity: 2
      m_PostInfinity: 2
      m_RotationOrder: 4
    attribute: localEulerAnglesBaked.x
    path: 
    classID: 224
    script: {fileID: 0}
  - curve:
      serializedVersion: 2
      m_Curve:
      - time: 0
        value: 0
        inSlope: 0
        outSlope: 0
        tangentMode: 10
      - time: 0.5
        value: 0
        inSlope: 0
        outSlope: 0
        tangentMode: 10
      m_PreInfinity: 2
      m_PostInfinity: 2
      m_RotationOrder: 4
    attribute: localEulerAnglesBaked.y
    path: 
    classID: 224
    script: {fileID: 0}
  - curve:
      serializedVersion: 2
      m_Curve:
      - time: 0
        value: 3
        inSlope: 714
        outSlope: 714
        tangentMode: 10
      - time: 0.5
        value: 360
        inSlope: 714
        outSlope: 714
        tangentMode: 10
      m_PreInfinity: 2
      m_PostInfinity: 2
      m_RotationOrder: 4
    attribute: localEulerAnglesBaked.z
    path: 
    classID: 224
    script: {fileID: 0}
  m_HasGenericRootTransform: 1
  m_HasMotionFloatCurves: 0
  m_GenerateMotionCurves: 0
  m_Events: []
